%YAML 1.1
%TAG !u! tag:unity3d.com,2011:
--- !u!1045 &1
EditorBuildSettings:
  m_ObjectHideFlags: 0
  serializedVersion: 2
  m_Scenes:
  - enabled: 1
    path: Assets/Scenes/MainMenu.unity
    guid: b8e5dda39c4b6d44e9247625077c6463
  - enabled: 1
    path: Assets/Scenes/Game.unity
    guid: 2f2c0a7b8827b2741abc16efc32bcb56
  - enabled: 1
    path: Assets/Scenes/Develop Scene.unity
    guid: 494a959813b13a345bbdc7111ec143f9
  m_configObjects: {}
